{
  "defaultSeverity": "error",
  "extends": ["tslint:recommended"],
  "jsRules": {
  },
  "rules": {
    "array-type": [true, "generic"],
    "quotemark": [true, "single"],
    "member-access": [false],
    "ordered-imports": [true],
    "max-line-length": [true, 150],
    "max-classes-per-file": [false, 999],
    "member-ordering": [false],
    "no-empty": [false],
    "no-empty-interface": [false],
    "no-floating-promises": true,
    "no-require-imports": [true],
    "no-unused-expression": true,
    "interface-name": [false],
    "arrow-parens": false,
    "object-literal-sort-keys": false,
    "variable-name": false
  },
  "rulesDirectory": [],
  "linterOptions": {
    "exclude": [
      "dist",
      "src/db/migrations/*"
    ]
  }
}
